<?xml version="1.0" encoding="UTF-8"?>
<svg width="162px" height="64px" viewBox="0 0 162 64" version="1.1" xmlns="http://www.w3.org/2000/svg" xmlns:xlink="http://www.w3.org/1999/xlink">
    <!-- Generator: Sketch 51.2 (57519) - http://www.bohemiancoding.com/sketch -->
    <title>sp logo color copy</title>
    <desc>Created with Sketch.</desc>
    <defs>
        <polygon id="path-1" points="0.000229183573 0.41625 49.0604686 0.41625 49.0604686 49.375 0.000229183573 49.375"></polygon>
    </defs>
    <g id="sp-logo-color-copy" stroke="none" stroke-width="1" fill="none" fill-rule="evenodd">
        <g id="Group-37" transform="translate(10.000000, 10.000000)">
            <g id="Group-36" transform="translate(0.000000, 0.209000)">
                <path d="M60.92525,19.81425 C61.623375,19.068625 61.972125,18.118 61.90775,17.137375 C61.7265,14.37175 59.61025,13.628 57.743375,12.971125 L57.34775,12.831125 C56.419,12.49175 55.90775,12.2655 55.889625,12.048 C55.928375,11.966125 56.193375,11.72425 56.733375,11.72425 C57.500875,11.72425 57.984625,11.8805 58.518375,12.301125 C59.250875,12.87925 60.28275,12.803 60.91775,12.124875 C61.2565,11.763625 61.43025,11.273 61.393375,10.77925 C61.3565,10.28425 61.112125,9.823 60.7215,9.51425 C59.560875,8.5955 58.25025,8.14925 56.713375,8.14925 C54.245875,8.14925 52.314,9.874875 52.314,12.07675 C52.314,14.7955 54.67025,15.6405 56.22275,16.198 C56.43025,16.273625 56.63275,16.34425 56.828375,16.413 C57.3715,16.603 58.192125,16.889875 58.323375,17.069875 C58.323375,17.069875 58.335875,17.104875 58.335875,17.197375 C58.335875,17.426125 57.867125,17.7555 57.02025,17.7555 C55.9665,17.7555 55.4065,17.46175 54.844,16.988625 C54.4665,16.67175 53.970875,16.52425 53.482125,16.584875 C52.99275,16.6455 52.5465,16.909875 52.258375,17.308625 C51.714625,18.06175 51.84775,19.11925 52.56025,19.716125 C53.823375,20.773625 55.324,21.3105 57.02025,21.3105 C58.634625,21.3105 60.022125,20.778625 60.92525,19.81425" id="Fill-1" fill="#F9A71B"></path>
                <path d="M69.207125,11.7240625 C70.522125,11.7240625 71.9365,12.7003125 71.9365,14.8421875 C71.9365,16.5571875 70.805875,17.7553125 69.187125,17.7553125 C67.472125,17.7553125 66.274,16.5571875 66.274,14.8421875 C66.274,13.0065625 67.479625,11.7240625 69.207125,11.7240625 M69.187125,21.3103125 C70.179,21.3103125 71.109,21.0984375 71.9365,20.7021875 L71.9365,23.5271875 C71.9365,24.5071875 72.734,25.3046875 73.714,25.3046875 C74.693375,25.3046875 75.4915,24.5071875 75.4915,23.5271875 L75.4915,10.0084375 C75.4915,9.0284375 74.693375,8.2309375 73.714,8.2309375 C73.123375,8.2309375 72.598375,8.5203125 72.27525,8.9653125 C71.3665,8.4378125 70.318375,8.1490625 69.207125,8.1490625 C65.508375,8.1490625 62.719,11.0265625 62.719,14.8421875 C62.719,18.5296875 65.499625,21.3103125 69.187125,21.3103125" id="Fill-3" fill="#F9A71B"></path>
                <path d="M81.9329375,21.31025 C82.8848125,21.31025 83.7848125,21.068375 84.5760625,20.624625 C84.9023125,21.0065 85.3866875,21.248375 85.9273125,21.248375 C86.9073125,21.248375 87.7041875,20.4515 87.7041875,19.4715 L87.7041875,10.008375 C87.7041875,9.028375 86.9073125,8.230875 85.9273125,8.230875 C84.9473125,8.230875 84.1498125,9.028375 84.1498125,10.008375 L84.1498125,14.678375 C84.1498125,16.49025 83.2385625,17.755875 81.9329375,17.755875 C81.4104375,17.755875 80.1873125,17.755875 80.1873125,15.210875 L80.1873125,10.008375 C80.1873125,9.028375 79.3898125,8.230875 78.4098125,8.230875 C77.4298125,8.230875 76.6329375,9.028375 76.6329375,10.008375 L76.6329375,15.4365 C76.6329375,19.004625 78.7135625,21.31025 81.9329375,21.31025" id="Fill-5" fill="#F9A71B"></path>
                <path d="M95.2361875,11.7240625 C96.5505625,11.7240625 97.9649375,12.7003125 97.9649375,14.8421875 C97.9649375,16.5571875 96.8349375,17.7553125 95.2161875,17.7553125 C93.5124375,17.7553125 92.3230625,16.5571875 92.3230625,14.8421875 C92.3230625,13.0065625 93.5205625,11.7240625 95.2361875,11.7240625 M95.2161875,21.3103125 C96.3355625,21.3103125 97.3893125,21.0284375 98.3030625,20.5134375 C98.6261875,20.9584375 99.1511875,21.2484375 99.7424375,21.2484375 C100.722438,21.2484375 101.519938,20.4515625 101.519938,19.4715625 L101.519938,10.0084375 C101.519938,9.0284375 100.722438,8.2309375 99.7424375,8.2309375 C99.1518125,8.2309375 98.6274375,8.5203125 98.3036875,8.9653125 C97.3949375,8.4378125 96.3468125,8.1490625 95.2361875,8.1490625 C91.5368125,8.1490625 88.7474375,11.0265625 88.7474375,14.8421875 C88.7474375,18.5296875 91.5280625,21.3103125 95.2161875,21.3103125" id="Fill-7" fill="#F9A71B"></path>
                <path d="M108.941,11.7350625 C109.441,11.7756875 109.937875,11.6063125 110.306625,11.2669375 C110.6735,10.9288125 110.88475,10.4475625 110.88475,9.9481875 C110.88475,8.9800625 110.12725,8.1925625 109.15975,8.1550625 C109.002875,8.1494375 108.83975,8.1494375 108.67725,8.1494375 C107.802875,8.1494375 106.987875,8.3431875 106.269125,8.7069375 C105.94225,8.3056875 105.44475,8.0481875 104.8885,8.0481875 C103.907875,8.0481875 103.111,8.8456875 103.111,9.8250625 L103.111,19.4713125 C103.111,20.4513125 103.907875,21.2488125 104.8885,21.2488125 C105.867875,21.2488125 106.665375,20.4513125 106.665375,19.4713125 L106.665375,14.7400625 C106.665375,13.2819375 107.20975,11.7238125 108.739125,11.7238125 C108.78725,11.7238125 108.855375,11.7275625 108.941,11.7350625" id="Fill-9" fill="#F9A71B"></path>
                <path d="M116.915875,11.7240625 C117.87775,11.7240625 118.444,12.1696875 118.777125,12.7165625 L114.874,12.7165625 C115.359,12.0959375 116.08025,11.7240625 116.915875,11.7240625 M116.915875,8.1490625 C113.404,8.1490625 110.65275,11.0440625 110.65275,14.7396875 C110.65275,18.4853125 113.362125,21.3103125 116.9565,21.3103125 C118.4565,21.3103125 119.768375,20.8921875 120.858375,20.0684375 C121.249625,19.7715625 121.504625,19.3215625 121.5565,18.8346875 C121.609,18.3490625 121.457125,17.8578125 121.139,17.4871875 C120.53275,16.7790625 119.474,16.6590625 118.72775,17.2134375 C118.24525,17.5728125 117.634625,17.7553125 116.915875,17.7553125 C115.823375,17.7553125 114.974625,17.1959375 114.542125,16.2709375 L121.23775,16.2709375 C122.052125,16.2709375 122.72775,15.6421875 122.785875,14.8303125 L122.8065,14.5434375 C122.809,14.5065625 122.81025,14.4696875 122.81025,14.4328125 C122.81025,10.7915625 120.3315,8.1490625 116.915875,8.1490625" id="Fill-11" fill="#F9A71B"></path>
                <path d="M59.760125,31.539125 C61.47575,31.539125 62.67325,32.821625 62.67325,34.65725 C62.67325,36.37225 61.483875,37.570375 59.78075,37.570375 C58.162,37.570375 57.031375,36.37225 57.031375,34.65725 C57.031375,33.155375 57.885125,31.539125 59.760125,31.539125 M59.760125,27.9635 C58.647625,27.9635 57.598875,28.251625 56.690125,28.776625 C56.36575,28.334125 55.842625,28.045375 55.253875,28.045375 C54.2745,28.045375 53.476375,28.8435 53.476375,29.822875 L53.476375,43.34225 C53.476375,44.321625 54.2745,45.11975 55.253875,45.11975 C56.233875,45.11975 57.031375,44.321625 57.031375,43.34225 L57.031375,40.525375 C57.856375,40.916625 58.78575,41.125375 59.78075,41.125375 C63.456375,41.125375 66.22825,38.34475 66.22825,34.65725 C66.22825,30.841625 63.447625,27.9635 59.760125,27.9635" id="Fill-13" fill="#FEFEFE"></path>
                <path d="M73.80125,31.539125 C75.115625,31.539125 76.53,32.51475 76.53,34.65725 C76.53,36.37225 75.4,37.570375 73.780625,37.570375 C72.0775,37.570375 70.888125,36.37225 70.888125,34.65725 C70.888125,32.821625 72.08625,31.539125 73.80125,31.539125 M78.3075,28.045375 C77.716875,28.045375 77.1925,28.335375 76.86875,28.780375 C75.96,28.252875 74.9125,27.9635 73.80125,27.9635 C70.1025,27.9635 67.3125,30.841625 67.3125,34.65725 C67.3125,38.34475 70.093125,41.125375 73.780625,41.125375 C74.9,41.125375 75.954375,40.842875 76.868125,40.327875 C77.19125,40.772875 77.71625,41.0635 78.3075,41.0635 C79.2875,41.0635 80.085,40.266625 80.085,39.286625 L80.085,29.822875 C80.085,28.8435 79.2875,28.045375 78.3075,28.045375" id="Fill-15" fill="#FEFEFE"></path>
                <path d="M87.91075,27.9636875 C86.805125,27.9636875 85.787,28.2243125 84.910125,28.7080625 C84.5845,28.3043125 84.085125,28.0455625 83.527,28.0455625 C82.547,28.0455625 81.750125,28.8430625 81.750125,29.8230625 L81.750125,39.2861875 C81.750125,40.2668125 82.547,41.0636875 83.527,41.0636875 C84.507625,41.0636875 85.3045,40.2668125 85.3045,39.2861875 L85.3045,34.6161875 C85.3045,32.6893125 86.278875,31.5393125 87.91075,31.5393125 C88.37075,31.5393125 89.328875,31.5393125 89.328875,33.7561875 L89.328875,39.2861875 C89.328875,40.2668125 90.12575,41.0636875 91.10575,41.0636875 C92.086375,41.0636875 92.88325,40.2668125 92.88325,39.2861875 L92.88325,33.5305625 C92.88325,30.1486875 90.931375,27.9636875 87.91075,27.9636875" id="Fill-17" fill="#FEFEFE"></path>
                <path d="M100.280125,31.539125 C101.603875,31.539125 103.0295,32.51475 103.0295,34.65725 C103.0295,36.37225 101.898875,37.570375 100.280125,37.570375 C98.552625,37.570375 97.346375,36.37225 97.346375,34.65725 C97.346375,32.821625 98.552625,31.539125 100.280125,31.539125 M104.807,22.884125 C103.827,22.884125 103.0295,23.681625 103.0295,24.661625 L103.0295,28.6085 C102.197625,28.190375 101.263875,27.9635 100.280125,27.9635 C96.581375,27.9635 93.791375,30.841625 93.791375,34.65725 C93.791375,38.34475 96.581375,41.125375 100.280125,41.125375 C101.403875,41.125375 102.457625,40.8435 103.36825,40.3285 C103.692,40.7735 104.216375,41.0635 104.807,41.0635 C105.787,41.0635 106.5845,40.266625 106.5845,39.286625 L106.5845,24.661625 C106.5845,23.681625 105.787,22.884125 104.807,22.884125" id="Fill-19" fill="#FEFEFE"></path>
                <path d="M114.14425,31.539125 C115.45925,31.539125 116.873,32.51475 116.873,34.65725 C116.873,36.37225 115.743,37.570375 114.12425,37.570375 C112.4205,37.570375 111.231125,36.37225 111.231125,34.65725 C111.231125,32.821625 112.42925,31.539125 114.14425,31.539125 M118.6505,28.045375 C118.0605,28.045375 117.5355,28.335375 117.21175,28.780375 C116.303,28.252875 115.2555,27.9635 114.14425,27.9635 C110.4455,27.9635 107.656125,30.841625 107.656125,34.65725 C107.656125,38.34475 110.436125,41.125375 114.12425,41.125375 C115.243625,41.125375 116.297375,40.842875 117.211125,40.327875 C117.534875,40.772875 118.059875,41.0635 118.6505,41.0635 C119.6305,41.0635 120.428,40.266625 120.428,39.286625 L120.428,29.822875 C120.428,28.8435 119.6305,28.045375 118.6505,28.045375" id="Fill-21" fill="#FEFEFE"></path>
                <path d="M4.6331875,16.2821875 C5.0525625,15.3821875 5.9413125,14.6534375 7.3100625,14.0859375 C7.3100625,14.0859375 11.1256875,12.6590625 10.6925625,11.6146875 C10.5894375,11.3665625 8.3838125,12.3821875 6.9481875,13.0740625 C6.9481875,13.0678125 6.7838125,13.1409375 6.7831875,13.1328125 L5.7550625,13.5590625 C4.6950625,13.9984375 3.9200625,14.8340625 3.5281875,15.8228125 C3.1050625,16.8009375 3.0588125,17.9415625 3.5000625,19.0046875 L4.0538125,20.3434375 C4.5875625,21.8496875 5.3844375,23.9678125 5.6150625,23.8721875 C6.6600625,23.4390625 4.9719375,19.7321875 4.9719375,19.7321875 C4.4044375,18.3603125 4.2906875,17.2146875 4.6331875,16.2821875" id="Fill-23" fill="#FEFEFE"></path>
                <path d="M29.0490625,5.081625 C30.4171875,4.51475 31.5615625,4.401 32.4946875,4.741625 C33.3959375,5.159125 34.1259375,6.049125 34.6934375,7.421 C34.6934375,7.421 36.1215625,11.236 37.1659375,10.802875 C37.3965625,10.707875 36.4634375,8.646 35.7759375,7.204125 L35.2209375,5.865375 C34.7809375,4.80225 33.9415625,4.02725 32.9503125,3.636 C31.9740625,3.214125 30.8359375,3.16975 29.7753125,3.60975 L28.7471875,4.035375 C28.7515625,4.041625 28.5621875,4.112875 28.5671875,4.117875 C27.0628125,4.6435 24.8065625,5.477875 24.9096875,5.726 C25.3415625,6.770375 29.0490625,5.081625 29.0490625,5.081625" id="Fill-25" fill="#FEFEFE"></path>
                <path d="M18.6840625,24.0250625 C18.2740625,24.1200625 18.0209375,24.5288125 18.1159375,24.9369375 C18.2109375,25.3456875 18.6203125,25.6019375 19.0284375,25.5056875 C19.4371875,25.4100625 19.6915625,25.0013125 19.5965625,24.5919375 C19.5015625,24.1838125 19.0928125,23.9294375 18.6840625,24.0250625" id="Fill-27" fill="#FEFEFE"></path>
                <path d="M32.3828125,26.0471875 C30.6321875,26.4359375 25.9890625,22.7265625 25.6946875,21.4065625 C25.3509375,19.8565625 26.3278125,18.3196875 27.8784375,17.9746875 C29.1984375,17.6815625 29.9228125,18.9246875 31.0790625,19.5103125 C32.6634375,20.3121875 34.5265625,20.3159375 34.9153125,22.0665625 C35.3146875,23.8659375 34.1809375,25.6471875 32.3828125,26.0471875 M31.6421875,32.4140625 C30.8996875,33.2703125 29.7578125,34.0690625 28.3703125,34.6434375 C26.9840625,35.2178125 25.6128125,35.4596875 24.4809375,35.3803125 C23.3621875,35.2996875 22.4165625,34.8959375 22.0509375,34.0378125 C21.9778125,33.8615625 22.0615625,33.6609375 22.2378125,33.5871875 C22.4140625,33.5140625 22.6146875,33.5978125 22.6878125,33.7740625 C22.8790625,34.2609375 23.5259375,34.6209375 24.5309375,34.6915625 C25.4421875,34.7584375 26.5984375,34.5759375 27.7853125,34.1296875 L26.8128125,31.7834375 C25.5253125,32.1303125 22.6190625,31.6709375 22.3121875,30.9284375 C21.9965625,30.1653125 23.6928125,29.4846875 25.7765625,28.6221875 C27.8603125,27.7584375 29.5309375,27.0446875 29.8571875,27.8034375 C30.1559375,28.4984375 28.7753125,30.6490625 27.4421875,31.4990625 L28.4228125,33.8659375 C29.5778125,33.3428125 30.5234375,32.6528125 31.1209375,31.9615625 C31.7815625,31.2015625 31.9834375,30.4890625 31.7746875,30.0103125 C31.7015625,29.8340625 31.7859375,29.6321875 31.9615625,29.5596875 C32.1371875,29.4871875 32.3396875,29.5696875 32.4121875,29.7459375 C32.7603125,30.6121875 32.3765625,31.5653125 31.6421875,32.4140625 M19.7765625,31.2684375 C18.2228125,32.2578125 16.1609375,31.7996875 15.1715625,30.2446875 C14.2090625,28.7315625 15.5234375,27.4115625 16.0765625,25.7240625 C16.4809375,24.4928125 16.1134375,23.1015625 17.2540625,22.3753125 C18.5940625,21.5228125 20.3709375,21.9190625 21.2240625,23.2584375 C21.9496875,24.3996875 21.2890625,30.3053125 19.7765625,31.2684375 M37.7990625,11.9553125 C37.4059375,12.1915625 37.0015625,12.4034375 36.5871875,12.5753125 C31.9740625,14.4859375 26.9309375,12.9284375 25.0109375,8.2928125 C24.8628125,7.9346875 24.8515625,7.7184375 24.7453125,7.4403125 C24.3259375,6.3428125 20.9134375,7.1478125 17.7240625,8.4840625 C14.5228125,9.7946875 11.5403125,11.6384375 12.0203125,12.7109375 C12.1421875,12.9828125 12.2865625,13.1434375 12.4353125,13.5015625 C14.3553125,18.1371875 11.8909375,22.8046875 7.2778125,24.7153125 C6.8640625,24.8871875 6.4271875,25.0234375 5.9828125,25.1340625 C5.9828125,25.1340625 10.1540625,38.8909375 14.1684375,40.5534375 C15.5521875,41.1271875 22.3984375,38.6946875 29.0628125,35.8590625 C35.7809375,33.1521875 42.3409375,30.0309375 42.9146875,28.6465625 C44.5765625,24.6328125 37.7990625,11.9553125 37.7990625,11.9553125" id="Fill-29" fill="#FEFEFE"></path>
                <path d="M28.0340625,20.1518125 C27.6771875,20.3736875 27.5684375,20.8424375 27.7896875,21.1986875 C28.0115625,21.5549375 28.4803125,21.6643125 28.8365625,21.4424375 C29.1940625,21.2224375 29.3021875,20.7518125 29.0803125,20.3955625 C28.8584375,20.0393125 28.3903125,19.9299375 28.0340625,20.1518125" id="Fill-31" fill="#FEFEFE"></path>
                <g id="Group-35">
                    <mask id="mask-2" fill="white">
                        <use xlink:href="#path-1"></use>
                    </mask>
                    <g id="Clip-34"></g>
                    <path d="M47.9241875,34.7593125 C47.2985625,35.9961875 46.5373125,36.6343125 45.8829375,37.0249375 C45.2523125,37.4018125 43.9735625,38.0411875 41.8010625,38.9293125 C40.0291875,39.6536875 39.0766875,39.8961875 38.2016875,39.9830625 C37.4160625,40.0611875 36.4454375,40.0186875 36.0591875,39.0755625 C35.8254375,38.5049375 36.1604375,37.9668125 36.1173125,37.6205625 C35.9810625,36.5268125 32.9779375,35.4311875 28.9691875,37.3374375 C25.9904375,38.7536875 24.7110625,41.1068125 25.2779375,42.0055625 C25.5735625,42.4761875 26.2254375,42.4393125 26.4591875,43.3143125 C26.6548125,44.0461875 26.1954375,44.7005625 25.7060625,45.1130625 C25.1023125,45.6230625 24.0766875,46.2730625 21.5860625,47.3080625 C19.5398125,48.1586875 18.1191875,48.5680625 17.6016875,48.6555625 C16.9004375,48.7749375 15.9641875,48.8830625 14.4866875,48.2261875 C13.1898125,47.6499375 12.4041875,46.5649375 11.8891875,45.3255625 C10.9223125,43.0018125 8.2598125,36.5868125 6.4985625,32.3474375 C4.6385625,27.8724375 3.1166875,24.1743125 1.2154375,19.5643125 C0.7029375,18.3224375 0.1898125,16.7611875 1.2935625,14.6618125 C2.0254375,13.2674375 3.3929375,12.6011875 4.0766875,12.3180625 C8.7991875,10.3611875 13.3598125,8.5068125 16.6060625,7.1518125 C19.8535625,5.7955625 24.4923125,3.8705625 29.4766875,1.8099375 C30.3279375,1.4586875 32.0229375,0.5661875 34.2916875,1.4486875 C36.2735625,2.2199375 36.8623125,3.7536875 37.1623125,4.4761875 C39.5248125,10.1605625 40.9141875,13.5299375 42.8166875,18.1086875 C44.3904375,21.8968125 46.4291875,26.7774375 48.0316875,30.6968125 C48.3329375,31.4355625 48.7935625,33.0405625 47.9241875,34.7593125 M48.8029375,30.9605625 C47.1529375,26.8586875 45.0460625,21.8455625 43.4123125,17.9136875 C41.4373125,13.1605625 40.0116875,9.6318125 37.5729375,3.7824375 C37.2598125,3.0330625 36.3810625,1.6049375 34.5316875,0.8561875 C32.2966875,-0.0488125 30.5848125,0.6636875 29.7016875,1.0286875 C24.5266875,3.1674375 19.7329375,5.1586875 16.3616875,6.5661875 C12.9923125,7.9724375 8.2660625,9.9255625 3.3598125,11.9499375 C2.7498125,12.2018125 1.5041875,12.9511875 0.7216875,14.3868125 C-0.2833125,16.2305625 -0.0989375,18.0593125 0.4323125,19.3480625 C2.4060625,24.1343125 3.9816875,27.9305625 5.9123125,32.5749375 C7.7410625,36.9755625 10.4541875,43.6074375 11.4910625,46.0486875 C11.9616875,47.1568125 12.9829375,48.2649375 14.3291875,48.8624375 C15.8635625,49.5443125 17.1379375,49.3911875 17.8654375,49.2680625 C18.4029375,49.1761875 19.2948125,48.8918125 21.4329375,48.0436875 C24.0916875,46.9886875 25.0923125,46.3693125 25.7504375,45.8824375 C26.3341875,45.4505625 27.4373125,44.4605625 27.0541875,43.0830625 C26.8004375,42.1668125 25.8216875,41.7355625 25.8073125,41.6861875 C25.5948125,40.9374375 26.7729375,39.1374375 29.1641875,37.9524375 C32.3735625,36.3624375 35.1573125,36.9561875 35.4760625,37.6661875 C35.5535625,37.8393125 35.0529375,38.5386875 35.6198125,39.5930625 C36.2679375,40.8005625 37.7091875,40.7161875 38.5198125,40.5893125 C39.4179375,40.4493125 40.5841875,40.1236875 42.4223125,39.3718125 C44.6779375,38.4499375 45.8210625,37.8674375 46.4498125,37.4349375 C47.0648125,37.0118125 47.9141875,36.2986875 48.5198125,34.9936875 C49.2716875,33.3724375 49.1116875,31.7280625 48.8029375,30.9605625" id="Fill-33" fill="#FEFEFE" mask="url(#mask-2)"></path>
                </g>
            </g>
            <text id="TM" font-family="AvertaStd-Bold, Averta Std" font-size="8" font-weight="bold" fill="#FEFEFE">
                <tspan x="122.810063" y="28.6818">TM</tspan>
            </text>
        </g>
    </g>
</svg>